{
    "id": "org.gnome.Podcasts.Devel",
    "runtime": "org.gnome.Platform",
    "runtime-version": "master",
    "sdk": "org.gnome.Sdk",
    "sdk-extensions": [
        "org.freedesktop.Sdk.Extension.rust-stable",
        "org.freedesktop.Sdk.Extension.llvm18"
    ],
    "command": "gnome-podcasts",
    "tags": [
        "nightly"
    ],
    "finish-args": [
        "--device=dri",
        "--share=network",
        "--share=ipc",
        "--socket=fallback-x11",
        "--socket=wayland",
        "--socket=pulseaudio",
        "--env=RUST_BACKTRACE=1",
        "--env=RUST_LOG=podcasts_gtk=debug,podcasts_data=debug,glib=debug",
        "--env=G_ENABLE_DIAGNOSTIC=1"
    ],
    "build-options": {
        "append-path": "/usr/lib/sdk/rust-stable/bin:/usr/lib/sdk/llvm18/bin",
        "build-args": [
            "--share=network"
        ],
        "cflags": "-DGDK_DISABLE_DEPRECATED -DGTK_DISABLE_DEPRECATED",
        "env": {
            "RUSTFLAGS": "-C force-frame-pointers=yes",
            "CARGO_TARGET_X86_64_UNKNOWN_LINUX_GNU_LINKER": "clang",
            "CARGO_TARGET_AARCH64_UNKNOWN_LINUX_GNU_LINKER": "clang",
            "CARGO_TARGET_X86_64_UNKNOWN_LINUX_GNU_RUSTFLAGS": "-C link-arg=-fuse-ld=/usr/lib/sdk/rust-stable/bin/mold",
            "CARGO_TARGET_AARCH64_UNKNOWN_LINUX_GNU_RUSTFLAGS": "-C link-arg=-fuse-ld=/usr/lib/sdk/rust-stable/bin/mold"
        }
    },
    "modules": [
        {
            "name": "gnome-podcasts",
            "buildsystem": "meson",
            "builddir": true,
            "run-tests": true,
            "config-opts": [
                "-Dprofile=development"
            ],
            "build-options": {
                "test-args": [
                    "--device=dri",
                    "--share=ipc",
                    "--socket=fallback-x11",
                    "--socket=wayland",
                    "--share=network"
                ]
            },
            "sources": [
                {
                    "type": "git",
                    "url": "https://gitlab.gnome.org/World/podcasts.git"
                }
            ]
        }
    ]
}
